# Format is:
#  - comments begin with a hash
#  - target directory is a section in braces []
#  - source path & filename follows
#    - destinations remain in context until a new dest is described
#    - follows in context of the previous target directories
#    - relative to top-level build dir
#    - no default destination; a dest line must precede any source
#    - leading and trailing whitespace is ignored


[/etc/pyplayer/]
    pyplayer2/config.py
    pyplayer2/pyplayerd.conf

[/etc/bash_completion.d/]
    pyplayer2/pyplayer_bashcomp.sh

[/usr/local/bin/]
    pyplayer2/pyplayer.py
    pyplayer2/pyplayerd.py

[/usr/local/lib/pyplayer/]
    pyplayer2/lib/__init__.py
    pyplayer2/lib/mplayer_constants.py
    pyplayer2/lib/pyplayer_lib.py
    pyplayer2/lib/pyplayer_mplayer_if.py
    pyplayer2/lib/pyplayer_queue.py
    pyplayer2/lib/pyplayerc.py
    pyplayer2/lib/python_process_list.py
    pyplayer2/lib/trace.py

[/usr/local/share/doc/pyplayer/]
    INSTALL.md
    KNOWN_ISSUES.md
    README.md
    TODO.md

# Populate at run-time:
#[/var/lib/pyplayer/]
#[/run/pyplayer/]
#[~/.run/pyplayer/]

